%YAML 1.1
%TAG !u! tag:unity3d.com,2011:
--- !u!114 &11400000
MonoBehaviour:
  m_ObjectHideFlags: 0
  m_CorrespondingSourceObject: {fileID: 0}
  m_PrefabInstance: {fileID: 0}
  m_PrefabAsset: {fileID: 0}
  m_GameObject: {fileID: 0}
  m_Enabled: 1
  m_EditorHideFlags: 0
  m_Script: {fileID: 11500000, guid: a5f6cab9b4a9e2d458c857c8a1e3a3d9, type: 3}
  m_Name: ImageTrackingUIContent 1
  m_EditorClassIdentifier: 
  Preamble: "<b>ImageTrackingSample</b>\n\nWelcome to the ImageTracking sample. Find
    the image above, and once your camera captures the image marker, the default
    cube will spawn there. \n\nCAUTION: In this use case you are probably going to
    use an image on a screen to do this. AR gets a bit confused with screens so give
    it some different angles and distances.\n\nIn this area you can enter text to
    tell people how to use the AR scene, what is displayed and other info that may
    be relevant."
  Image: {fileID: 21300000, guid: c619881e960b8924da3f9ae01c92d1af, type: 3}
  Header: Tips
  Body: "<b>ImageTrackingSample</b>\r\n\r\nWelcome to the ImageTracking sample. Find
    the image above, and once your camera captures the image marker, the default
    cube will spawn there. \n\nCAUTION: In this use case you are probably going to
    use an image on a screen to do this. AR gets a bit confused with screens so give
    it some different angles and distances.\n\nIn this area you can enter text to
    tell people how to use the AR scene, what is displayed and other info that may
    be relevant. \n\nIn this area you can apply even more information"
  UseCustomGuiColor: 0
  GUIColor: {r: 0, g: 0, b: 0, a: 0}
  TextColor: {r: 1, g: 1, b: 1, a: 1}
  Watermark: {fileID: 0}
